{
    "towns": [
        "Deganwy",
        "Haddington",
        "Tyldsley",
        "Northwich",
        "Thornton"
    ],
    "distances": {
        "Deganwy": {
            "Haddington": 39,
            "Tyldsley": 56,
            "Northwich": 63,
            "Thornton": 31
        },
        "Haddington": {
            "Deganwy": 39,
            "Tyldsley": 51,
            "Northwich": 28,
            "Thornton": 2
        },
        "Tyldsley": {
            "Deganwy": 56,
            "Haddington": 51,
            "Northwich": 77,
            "Thornton": 46
        },
        "Northwich": {
            "Deganwy": 63,
            "Haddington": 28,
            "Tyldsley": 77,
            "Thornton": 98
        },
        "Thornton": {
            "Deganwy": 31,
            "Haddington": 2,
            "Tyldsley": 46,
            "Northwich": 98
        }
    }
}